// 20230406145544
// http://127.0.0.1:8000/router/epic/?format=json&page=2

{
  "count": 1971,
  "next": "http://127.0.0.1:8000/router/epic/?format=json&page=3",
  "previous": "http://127.0.0.1:8000/router/epic/?format=json",
  "results": [
    {
      "epic_id": "f6944e9613c34898b1bbd2b6212ee4a9",
      "title": "Unusual Findings",
      "img": "https://cdn1.epicgames.com/spt-assets/ae7a5ecb15e849ed82c9f2b03ad850f6/unusual-findings-jk7li.jpg",
      "platforms": [
        "mac"
      ],
      "price_now": 19000,
      "flag_is_discount": false,
      "discount": 0,
      "price_past": 19000,
      "timestrap": "2023-04-06T11:49:31.321531Z"
    },
    {
      "epic_id": "a1128d0a7b474370974c8ff4b933375e",
      "title": "IncrediMarble",
      "img": "https://cdn1.epicgames.com/spt-assets/e589aeb8af6945cdba605425267fb086/incredimarble-1ttrz.png",
      "platforms": [
        "mac"
      ],
      "price_now": 5400,
      "flag_is_discount": false,
      "discount": 0,
      "price_past": 5400,
      "timestrap": "2023-04-06T11:49:31.331524Z"
    },
    {
      "epic_id": "dd98ea5250204ae2b03b3befbdcbb561",
      "title": "Arctico",
      "img": "https://cdn1.epicgames.com/spt-assets/08bca321177544deb3267660a719d4b8/arctico-15mnt.png",
      "platforms": [
        "mac"
      ],
      "price_now": 7600,
      "flag_is_discount": false,
      "discount": 0,
      "price_past": 7600,
      "timestrap": "2023-04-06T11:49:31.338115Z"
    },
    {
      "epic_id": "192c6d2108d14334a8f311f6b2884798",
      "title": "Cats Yakuza - Online card game",
      "img": "https://cdn1.epicgames.com/spt-assets/95daa8460bb7455ea218eaf6462e934a/cats-yakuza--online-card-game-11qtn.jpg",
      "platforms": [
        "mac"
      ],
      "price_now": 3800,
      "flag_is_discount": false,
      "discount": 0,
      "price_past": 3800,
      "timestrap": "2023-04-06T11:49:31.347110Z"
    },
    {
      "epic_id": "99542bc6fab648118c1eb129a1f02bec",
      "title": "Life of Delta",
      "img": "https://cdn1.epicgames.com/spt-assets/39afb308699243968326a20ebf733046/life-of-delta-1jnd0.png",
      "platforms": [
        "mac"
      ],
      "price_now": 19900,
      "flag_is_discount": false,
      "discount": 0,
      "price_past": 19900,
      "timestrap": "2023-04-06T11:49:31.353056Z"
    },
    {
      "epic_id": "894044bc1cd34d99b69ac356fa036f99",
      "title": "Duskers",
      "img": "https://cdn1.epicgames.com/spt-assets/63398ad79bbc48bb8fda573695ad0873/duskers-oqf9l.png",
      "platforms": [
        "mac"
      ],
      "price_now": 14900,
      "flag_is_discount": false,
      "discount": 0,
      "price_past": 14900,
      "timestrap": "2023-04-06T11:49:31.359574Z"
    },
    {
      "epic_id": "0623017cf9f341efbe07557f46beb4e8",
      "title": "Firestone Online Idle RPG",
      "img": "https://cdn1.epicgames.com/spt-assets/69576a28f7154fe9a0dce97508da5163/firestone-online-idle-rpg-1cc7j.png",
      "platforms": [
        "mac"
      ],
      "price_now": 0,
      "flag_is_discount": false,
      "discount": 0,
      "price_past": 0,
      "timestrap": "2023-04-06T11:49:31.367101Z"
    },
    {
      "epic_id": "0420f8a46e674bf0a56fcdea0158afda",
      "title": "Lumencraft",
      "img": "https://cdn1.epicgames.com/spt-assets/e7585b80abf94d7590e4442d8d9cd3fc/lumencraft-6f9z9.jpg",
      "platforms": [
        "mac"
      ],
      "price_now": 14900,
      "flag_is_discount": false,
      "discount": 0,
      "price_past": 14900,
      "timestrap": "2023-04-06T11:49:31.375095Z"
    },
    {
      "epic_id": "984e59e0717243c68234eb5a04dbc826",
      "title": "Planet Cube - Edge",
      "img": "https://cdn1.epicgames.com/spt-assets/76b811ca6b4a4ab997881ffd8b71fe17/planet-cube--edge-ih7ws.png",
      "platforms": [
        "mac"
      ],
      "price_now": 11500,
      "flag_is_discount": false,
      "discount": 0,
      "price_past": 11500,
      "timestrap": "2023-04-06T11:49:31.383089Z"
    },
    {
      "epic_id": "b25d275b24534c8081dc3e30096e21ef",
      "title": "Caverns of Mars Recharged",
      "img": "https://cdn1.epicgames.com/spt-assets/e57f25188527418d9dd7b7d3780cdaab/caverns-of-mars-recharged-tie4c.png",
      "platforms": [
        "mac"
      ],
      "price_now": 7600,
      "flag_is_discount": false,
      "discount": 0,
      "price_past": 7600,
      "timestrap": "2023-04-06T11:49:31.390087Z"
    }
  ]
}